{
"_class":"page",
"do_objectID":"8387E4DF-2662-4447-AD77-E102BB20D953",
"booleanOperation":0,
"isFixedToViewport":false,
"isFlippedHorizontal":false,
"isFlippedVertical":false,
"isLocked":false,
"isVisible":true,
"layerListExpandedType":0,
"maintainScrollPosition":false,
"name":"Page 1",
"nameIsFixed":false,
"resizingConstraint":63,
"resizingType":0,
"rotation":0,
"shouldBreakMaskChain":false,
"exportOptions":{
"_class":"exportOptions",
"includedLayerIds":[],
"layerOptions":0,
"shouldTrim":false,
"exportFormats":[]
},
"frame":{
"_class":"rect",
"constrainProportions":false,
"height":300,
"width":300,
"x":0,
"y":0
},
"clippingMaskMode":0,
"hasClippingMask":false,
"style":{
"_class":"style",
"do_objectID":"FA4B58EE-834C-4C44-B23D-B4F3C39BFEEA",
"endMarkerType":0,
"miterLimit":10,
"startMarkerType":0,
"windingRule":1,
"blur":{
"_class":"blur",
"isEnabled":false,
"center":"{0.5, 0.5}",
"motionAngle":0,
"radius":10,
"saturation":1,
"type":0
},
"borderOptions":{
"_class":"borderOptions",
"isEnabled":true,
"dashPattern":[],
"lineCapStyle":0,
"lineJoinStyle":0
},
"borders":[],
"colorControls":{
"_class":"colorControls",
"isEnabled":false,
"brightness":0,
"contrast":1,
"hue":0,
"saturation":1
},
"contextSettings":{
"_class":"graphicsContextSettings",
"blendMode":0,
"opacity":1
},
"fills":[],
"innerShadows":[],
"shadows":[]
},
"hasClickThrough":true,
"groupLayout":{
"_class":"MSImmutableFreeformGroupLayout"
},
"layers":[
{
"_class":"artboard",
"do_objectID":"144788E9-2BF5-4E97-9279-6E3FA595AFBF",
"booleanOperation":-1,
"isFixedToViewport":false,
"isFlippedHorizontal":false,
"isFlippedVertical":false,
"isLocked":false,
"isVisible":true,
"layerListExpandedType":0,
"maintainScrollPosition":false,
"name":"Artboard",
"nameIsFixed":false,
"resizingConstraint":63,
"resizingType":0,
"rotation":0,
"shouldBreakMaskChain":true,
"exportOptions":{
"_class":"exportOptions",
"includedLayerIds":[],
"layerOptions":0,
"shouldTrim":false,
"exportFormats":[]
},
"frame":{
"_class":"rect",
"constrainProportions":false,
"height":622,
"width":515,
"x":238,
"y":84
},
"clippingMaskMode":0,
"hasClippingMask":false,
"style":{
"_class":"style",
"do_objectID":"B28F6F08-1ED8-4789-B68C-01C6C8FA8994",
"endMarkerType":0,
"miterLimit":10,
"startMarkerType":0,
"windingRule":1,
"blur":{
"_class":"blur",
"isEnabled":false,
"center":"{0.5, 0.5}",
"motionAngle":0,
"radius":10,
"saturation":1,
"type":0
},
"borderOptions":{
"_class":"borderOptions",
"isEnabled":true,
"dashPattern":[],
"lineCapStyle":0,
"lineJoinStyle":0
},
"borders":[],
"colorControls":{
"_class":"colorControls",
"isEnabled":false,
"brightness":0,
"contrast":1,
"hue":0,
"saturation":1
},
"contextSettings":{
"_class":"graphicsContextSettings",
"blendMode":0,
"opacity":1
},
"fills":[],
"innerShadows":[],
"shadows":[]
},
"hasClickThrough":true,
"groupLayout":{
"_class":"MSImmutableFreeformGroupLayout"
},
"layers":[
{
"_class":"rectangle",
"do_objectID":"7FEA171E-8A68-4304-B027-D89943EB7D88",
"booleanOperation":-1,
"isFixedToViewport":false,
"isFlippedHorizontal":false,
"isFlippedVertical":false,
"isLocked":false,
"isVisible":true,
"layerListExpandedType":0,
"maintainScrollPosition":false,
"name":"Rectangle",
"nameIsFixed":false,
"resizingConstraint":63,
"resizingType":0,
"rotation":0,
"shouldBreakMaskChain":false,
"exportOptions":{
"_class":"exportOptions",
"includedLayerIds":[],
"layerOptions":0,
"shouldTrim":false,
"exportFormats":[]
},
"frame":{
"_class":"rect",
"constrainProportions":false,
"height":169,
"width":149,
"x":299,
"y":340
},
"clippingMaskMode":0,
"hasClippingMask":false,
"style":{
"_class":"style",
"do_objectID":"746E77FB-CCB0-41D1-B3BB-7279B56C4778",
"endMarkerType":0,
"miterLimit":10,
"startMarkerType":0,
"windingRule":1,
"blur":{
"_class":"blur",
"isEnabled":false,
"center":"{0.5, 0.5}",
"motionAngle":0,
"radius":10,
"saturation":1,
"type":0
},
"borderOptions":{
"_class":"borderOptions",
"isEnabled":true,
"dashPattern":[],
"lineCapStyle":0,
"lineJoinStyle":0
},
"borders":[
{
"_class":"border",
"isEnabled":false,
"fillType":0,
"color":{
"_class":"color",
"alpha":1,
"blue":0.592,
"green":0.592,
"red":0.592
},
"contextSettings":{
"_class":"graphicsContextSettings",
"blendMode":0,
"opacity":1
},
"gradient":{
"_class":"gradient",
"elipseLength":0,
"from":"{0.5, 0}",
"gradientType":0,
"to":"{0.5, 1}",
"stops":[
{
"_class":"gradientStop",
"position":0,
"color":{
"_class":"color",
"alpha":1,
"blue":1,
"green":1,
"red":1
}
},
{
"_class":"gradientStop",
"position":1,
"color":{
"_class":"color",
"alpha":1,
"blue":0,
"green":0,
"red":0
}
}
]
},
"position":0,
"thickness":1
}
],
"colorControls":{
"_class":"colorControls",
"isEnabled":false,
"brightness":0,
"contrast":1,
"hue":0,
"saturation":1
},
"contextSettings":{
"_class":"graphicsContextSettings",
"blendMode":0,
"opacity":1
},
"fills":[
{
"_class":"fill",
"isEnabled":true,
"fillType":0,
"color":{
"_class":"color",
"alpha":1,
"blue":0.2799227081115442,
"green":0.2799227081115442,
"red":0.6292176177536232
},
"contextSettings":{
"_class":"graphicsContextSettings",
"blendMode":0,
"opacity":1
},
"gradient":{
"_class":"gradient",
"elipseLength":0,
"from":"{0.5, 0}",
"gradientType":0,
"to":"{0.5, 1}",
"stops":[
{
"_class":"gradientStop",
"position":0,
"color":{
"_class":"color",
"alpha":1,
"blue":1,
"green":1,
"red":1
}
},
{
"_class":"gradientStop",
"position":1,
"color":{
"_class":"color",
"alpha":1,
"blue":0,
"green":0,
"red":0
}
}
]
},
"noiseIndex":0,
"noiseIntensity":0,
"patternFillType":1,
"patternTileScale":1
}
],
"innerShadows":[],
"shadows":[]
},
"edited":true,
"isClosed":true,
"pointRadiusBehaviour":1,
"points":[
{
"_class":"curvePoint",
"cornerRadius":0,
"curveFrom":"{1, 0}",
"curveMode":1,
"curveTo":"{1, 0}",
"hasCurveFrom":false,
"hasCurveTo":false,
"point":"{1, 0}"
},
{
"_class":"curvePoint",
"cornerRadius":0,
"curveFrom":"{1, 1}",
"curveMode":1,
"curveTo":"{1, 1}",
"hasCurveFrom":false,
"hasCurveTo":false,
"point":"{1, 1}"
},
{
"_class":"curvePoint",
"cornerRadius":0,
"curveFrom":"{0, 1}",
"curveMode":1,
"curveTo":"{0, 1}",
"hasCurveFrom":false,
"hasCurveTo":false,
"point":"{0, 1}"
}
],
"fixedRadius":0,
"needsConvertionToNewRoundCorners":false,
"hasConvertedToNewRoundCorners":true
},
{
"_class":"oval",
"do_objectID":"00F4C55E-8711-437D-8354-A733650B0D78",
"booleanOperation":-1,
"isFixedToViewport":false,
"isFlippedHorizontal":false,
"isFlippedVertical":false,
"isLocked":false,
"isVisible":true,
"layerListExpandedType":0,
"maintainScrollPosition":false,
"name":"Oval",
"nameIsFixed":false,
"resizingConstraint":63,
"resizingType":0,
"rotation":0,
"shouldBreakMaskChain":false,
"exportOptions":{
"_class":"exportOptions",
"includedLayerIds":[],
"layerOptions":0,
"shouldTrim":false,
"exportFormats":[]
},
"frame":{
"_class":"rect",
"constrainProportions":false,
"height":132,
"width":146,
"x":299,
"y":63
},
"clippingMaskMode":0,
"hasClippingMask":false,
"style":{
"_class":"style",
"do_objectID":"44AF9ADD-82F9-4F3C-8908-921A2A4C7E82",
"endMarkerType":0,
"miterLimit":10,
"startMarkerType":0,
"windingRule":1,
"blur":{
"_class":"blur",
"isEnabled":false,
"center":"{0.5, 0.5}",
"motionAngle":0,
"radius":10,
"saturation":1,
"type":0
},
"borderOptions":{
"_class":"borderOptions",
"isEnabled":true,
"dashPattern":[],
"lineCapStyle":0,
"lineJoinStyle":0
},
"borders":[
{
"_class":"border",
"isEnabled":true,
"fillType":0,
"color":{
"_class":"color",
"alpha":1,
"blue":0.6249716938405797,
"green":0.2108907396053553,
"red":0.121695612411526
},
"contextSettings":{
"_class":"graphicsContextSettings",
"blendMode":0,
"opacity":1
},
"gradient":{
"_class":"gradient",
"elipseLength":0,
"from":"{0.5, 0}",
"gradientType":0,
"to":"{0.5, 1}",
"stops":[
{
"_class":"gradientStop",
"position":0,
"color":{
"_class":"color",
"alpha":1,
"blue":1,
"green":1,
"red":1
}
},
{
"_class":"gradientStop",
"position":1,
"color":{
"_class":"color",
"alpha":1,
"blue":0,
"green":0,
"red":0
}
}
]
},
"position":0,
"thickness":11
}
],
"colorControls":{
"_class":"colorControls",
"isEnabled":false,
"brightness":0,
"contrast":1,
"hue":0,
"saturation":1
},
"contextSettings":{
"_class":"graphicsContextSettings",
"blendMode":0,
"opacity":1
},
"fills":[
{
"_class":"fill",
"isEnabled":true,
"fillType":1,
"color":{
"_class":"color",
"alpha":1,
"blue":0.2805532170236021,
"green":0.5419214221014492,
"red":0.1673161738245004
},
"contextSettings":{
"_class":"graphicsContextSettings",
"blendMode":0,
"opacity":1
},
"gradient":{
"_class":"gradient",
"elipseLength":0,
"from":"{0.5, 0}",
"gradientType":0,
"to":"{0.5, 1}",
"stops":[
{
"_class":"gradientStop",
"position":0,
"color":{
"_class":"color",
"alpha":1,
"blue":0.7473202644994574,
"green":0.3343717354463411,
"red":0.3555335427153436
}
},
{
"_class":"gradientStop",
"position":1,
"color":{
"_class":"color",
"alpha":1,
"blue":0.2805532170236021,
"green":0.5419214221014492,
"red":0.1673161738245004
}
}
]
},
"noiseIndex":0,
"noiseIntensity":0,
"patternFillType":1,
"patternTileScale":1
}
],
"innerShadows":[],
"shadows":[]
},
"edited":false,
"isClosed":true,
"pointRadiusBehaviour":1,
"points":[
{
"_class":"curvePoint",
"cornerRadius":0,
"curveFrom":"{0.77614237490000004, 1}",
"curveMode":2,
"curveTo":"{0.22385762510000001, 1}",
"hasCurveFrom":true,
"hasCurveTo":true,
"point":"{0.5, 1}"
},
{
"_class":"curvePoint",
"cornerRadius":0,
"curveFrom":"{1, 0.22385762510000001}",
"curveMode":2,
"curveTo":"{1, 0.77614237490000004}",
"hasCurveFrom":true,
"hasCurveTo":true,
"point":"{1, 0.5}"
},
{
"_class":"curvePoint",
"cornerRadius":0,
"curveFrom":"{0.22385762510000001, 0}",
"curveMode":2,
"curveTo":"{0.77614237490000004, 0}",
"hasCurveFrom":true,
"hasCurveTo":true,
"point":"{0.5, 0}"
},
{
"_class":"curvePoint",
"cornerRadius":0,
"curveFrom":"{0, 0.77614237490000004}",
"curveMode":2,
"curveTo":"{0, 0.22385762510000001}",
"hasCurveFrom":true,
"hasCurveTo":true,
"point":"{0, 0.5}"
}
]
},
{
"_class":"oval",
"do_objectID":"E9E0945C-C462-459C-85F7-305DD7E42B06",
"booleanOperation":-1,
"isFixedToViewport":false,
"isFlippedHorizontal":false,
"isFlippedVertical":false,
"isLocked":false,
"isVisible":true,
"layerListExpandedType":0,
"maintainScrollPosition":false,
"name":"Oval Copy",
"nameIsFixed":false,
"resizingConstraint":63,
"resizingType":0,
"rotation":0,
"shouldBreakMaskChain":false,
"exportOptions":{
"_class":"exportOptions",
"includedLayerIds":[],
"layerOptions":0,
"shouldTrim":false,
"exportFormats":[]
},
"frame":{
"_class":"rect",
"constrainProportions":false,
"height":132,
"width":146,
"x":134,
"y":63
},
"clippingMaskMode":0,
"hasClippingMask":false,
"style":{
"_class":"style",
"do_objectID":"F27BE56D-3E08-4E27-973E-4BA52ADE34F2",
"endMarkerType":0,
"miterLimit":10,
"startMarkerType":0,
"windingRule":1,
"blur":{
"_class":"blur",
"isEnabled":false,
"center":"{0.5, 0.5}",
"motionAngle":0,
"radius":10,
"saturation":1,
"type":0
},
"borderOptions":{
"_class":"borderOptions",
"isEnabled":true,
"dashPattern":[],
"lineCapStyle":0,
"lineJoinStyle":0
},
"borders":[
{
"_class":"border",
"isEnabled":true,
"fillType":0,
"color":{
"_class":"color",
"alpha":1,
"blue":0.592,
"green":0.592,
"red":0.592
},
"contextSettings":{
"_class":"graphicsContextSettings",
"blendMode":0,
"opacity":1
},
"gradient":{
"_class":"gradient",
"elipseLength":0,
"from":"{0.5, 0}",
"gradientType":0,
"to":"{0.5, 1}",
"stops":[
{
"_class":"gradientStop",
"position":0,
"color":{
"_class":"color",
"alpha":1,
"blue":1,
"green":1,
"red":1
}
},
{
"_class":"gradientStop",
"position":1,
"color":{
"_class":"color",
"alpha":1,
"blue":0,
"green":0,
"red":0
}
}
]
},
"position":0,
"thickness":1
}
],
"colorControls":{
"_class":"colorControls",
"isEnabled":false,
"brightness":0,
"contrast":1,
"hue":0,
"saturation":1
},
"contextSettings":{
"_class":"graphicsContextSettings",
"blendMode":0,
"opacity":1
},
"fills":[
{
"_class":"fill",
"isEnabled":true,
"fillType":1,
"color":{
"_class":"color",
"alpha":1,
"blue":0.2805532170236021,
"green":0.5419214221014492,
"red":0.1673161738245004
},
"contextSettings":{
"_class":"graphicsContextSettings",
"blendMode":0,
"opacity":1
},
"gradient":{
"_class":"gradient",
"elipseLength":0,
"from":"{0.5, 0}",
"gradientType":0,
"to":"{0.5, 1}",
"stops":[
{
"_class":"gradientStop",
"position":0,
"color":{
"_class":"color",
"alpha":1,
"blue":0.7473202644994574,
"green":0.3343717354463411,
"red":0.3555335427153436
}
},
{
"_class":"gradientStop",
"position":1,
"color":{
"_class":"color",
"alpha":1,
"blue":0.2805532170236021,
"green":0.5419214221014492,
"red":0.1673161738245004
}
}
]
},
"noiseIndex":0,
"noiseIntensity":0,
"patternFillType":1,
"patternTileScale":1
}
],
"innerShadows":[],
"shadows":[]
},
"edited":false,
"isClosed":true,
"pointRadiusBehaviour":1,
"points":[
{
"_class":"curvePoint",
"cornerRadius":0,
"curveFrom":"{0.77614237490000004, 1}",
"curveMode":2,
"curveTo":"{0.22385762510000001, 1}",
"hasCurveFrom":true,
"hasCurveTo":true,
"point":"{0.5, 1}"
},
{
"_class":"curvePoint",
"cornerRadius":0,
"curveFrom":"{1, 0.22385762510000001}",
"curveMode":2,
"curveTo":"{1, 0.77614237490000004}",
"hasCurveFrom":true,
"hasCurveTo":true,
"point":"{1, 0.5}"
},
{
"_class":"curvePoint",
"cornerRadius":0,
"curveFrom":"{0.22385762510000001, 0}",
"curveMode":2,
"curveTo":"{0.77614237490000004, 0}",
"hasCurveFrom":true,
"hasCurveTo":true,
"point":"{0.5, 0}"
},
{
"_class":"curvePoint",
"cornerRadius":0,
"curveFrom":"{0, 0.77614237490000004}",
"curveMode":2,
"curveTo":"{0, 0.22385762510000001}",
"hasCurveFrom":true,
"hasCurveTo":true,
"point":"{0, 0.5}"
}
]
},
{
"_class":"oval",
"do_objectID":"ECA5CFA8-8949-4DEA-94EB-6BBB88CC585E",
"booleanOperation":-1,
"isFixedToViewport":false,
"isFlippedHorizontal":false,
"isFlippedVertical":false,
"isLocked":false,
"isVisible":true,
"layerListExpandedType":0,
"maintainScrollPosition":false,
"name":"Oval Copy 2",
"nameIsFixed":false,
"resizingConstraint":63,
"resizingType":0,
"rotation":0,
"shouldBreakMaskChain":false,
"exportOptions":{
"_class":"exportOptions",
"includedLayerIds":[],
"layerOptions":0,
"shouldTrim":false,
"exportFormats":[]
},
"frame":{
"_class":"rect",
"constrainProportions":false,
"height":132,
"width":146,
"x":40,
"y":63
},
"clippingMaskMode":0,
"hasClippingMask":false,
"style":{
"_class":"style",
"do_objectID":"6744050A-3EF3-410D-BB4D-E1D8276AE949",
"endMarkerType":0,
"miterLimit":10,
"startMarkerType":0,
"windingRule":1,
"blur":{
"_class":"blur",
"isEnabled":false,
"center":"{0.5, 0.5}",
"motionAngle":0,
"radius":10,
"saturation":1,
"type":0
},
"borderOptions":{
"_class":"borderOptions",
"isEnabled":true,
"dashPattern":[],
"lineCapStyle":0,
"lineJoinStyle":0
},
"borders":[
{
"_class":"border",
"isEnabled":true,
"fillType":0,
"color":{
"_class":"color",
"alpha":1,
"blue":0.592,
"green":0.592,
"red":0.592
},
"contextSettings":{
"_class":"graphicsContextSettings",
"blendMode":0,
"opacity":1
},
"gradient":{
"_class":"gradient",
"elipseLength":0,
"from":"{0.5, 0}",
"gradientType":0,
"to":"{0.5, 1}",
"stops":[
{
"_class":"gradientStop",
"position":0,
"color":{
"_class":"color",
"alpha":1,
"blue":1,
"green":1,
"red":1
}
},
{
"_class":"gradientStop",
"position":1,
"color":{
"_class":"color",
"alpha":1,
"blue":0,
"green":0,
"red":0
}
}
]
},
"position":0,
"thickness":1
}
],
"colorControls":{
"_class":"colorControls",
"isEnabled":false,
"brightness":0,
"contrast":1,
"hue":0,
"saturation":1
},
"contextSettings":{
"_class":"graphicsContextSettings",
"blendMode":0,
"opacity":1
},
"fills":[
{
"_class":"fill",
"isEnabled":true,
"fillType":1,
"color":{
"_class":"color",
"alpha":1,
"blue":0.2805532170236021,
"green":0.5419214221014492,
"red":0.1673161738245004
},
"contextSettings":{
"_class":"graphicsContextSettings",
"blendMode":0,
"opacity":1
},
"gradient":{
"_class":"gradient",
"elipseLength":0,
"from":"{0.5, 0}",
"gradientType":0,
"to":"{0.5, 1}",
"stops":[
{
"_class":"gradientStop",
"position":0,
"color":{
"_class":"color",
"alpha":1,
"blue":0.7473202644994574,
"green":0.3343717354463411,
"red":0.3555335427153436
}
},
{
"_class":"gradientStop",
"position":1,
"color":{
"_class":"color",
"alpha":1,
"blue":0.2805532170236021,
"green":0.5419214221014492,
"red":0.1673161738245004
}
}
]
},
"noiseIndex":0,
"noiseIntensity":0,
"patternFillType":1,
"patternTileScale":1
}
],
"innerShadows":[],
"shadows":[]
},
"edited":false,
"isClosed":true,
"pointRadiusBehaviour":1,
"points":[
{
"_class":"curvePoint",
"cornerRadius":0,
"curveFrom":"{0.77614237490000004, 1}",
"curveMode":2,
"curveTo":"{0.22385762510000001, 1}",
"hasCurveFrom":true,
"hasCurveTo":true,
"point":"{0.5, 1}"
},
{
"_class":"curvePoint",
"cornerRadius":0,
"curveFrom":"{1, 0.22385762510000001}",
"curveMode":2,
"curveTo":"{1, 0.77614237490000004}",
"hasCurveFrom":true,
"hasCurveTo":true,
"point":"{1, 0.5}"
},
{
"_class":"curvePoint",
"cornerRadius":0,
"curveFrom":"{0.22385762510000001, 0}",
"curveMode":2,
"curveTo":"{0.77614237490000004, 0}",
"hasCurveFrom":true,
"hasCurveTo":true,
"point":"{0.5, 0}"
},
{
"_class":"curvePoint",
"cornerRadius":0,
"curveFrom":"{0, 0.77614237490000004}",
"curveMode":2,
"curveTo":"{0, 0.22385762510000001}",
"hasCurveFrom":true,
"hasCurveTo":true,
"point":"{0, 0.5}"
}
]
},
{
"_class":"star",
"do_objectID":"C558C0DE-B7C2-4D35-B588-6469DEFE7224",
"booleanOperation":-1,
"isFixedToViewport":false,
"isFlippedHorizontal":false,
"isFlippedVertical":false,
"isLocked":false,
"isVisible":true,
"layerListExpandedType":0,
"maintainScrollPosition":false,
"name":"Star",
"nameIsFixed":false,
"resizingConstraint":63,
"resizingType":0,
"rotation":0,
"shouldBreakMaskChain":false,
"exportOptions":{
"_class":"exportOptions",
"includedLayerIds":[],
"layerOptions":0,
"shouldTrim":false,
"exportFormats":[]
},
"frame":{
"_class":"rect",
"constrainProportions":false,
"height":127,
"width":174,
"x":249,
"y":350
},
"clippingMaskMode":0,
"hasClippingMask":false,
"style":{
"_class":"style",
"do_objectID":"55BDE1CF-8C47-4C9F-9D77-7BF769A1D704",
"endMarkerType":0,
"miterLimit":10,
"startMarkerType":0,
"windingRule":1,
"blur":{
"_class":"blur",
"isEnabled":false,
"center":"{0.5, 0.5}",
"motionAngle":0,
"radius":10,
"saturation":1,
"type":0
},
"borderOptions":{
"_class":"borderOptions",
"isEnabled":true,
"dashPattern":[],
"lineCapStyle":0,
"lineJoinStyle":0
},
"borders":[
{
"_class":"border",
"isEnabled":false,
"fillType":0,
"color":{
"_class":"color",
"alpha":1,
"blue":0.592,
"green":0.592,
"red":0.592
},
"contextSettings":{
"_class":"graphicsContextSettings",
"blendMode":0,
"opacity":1
},
"gradient":{
"_class":"gradient",
"elipseLength":0,
"from":"{0.5, 0}",
"gradientType":0,
"to":"{0.5, 1}",
"stops":[
{
"_class":"gradientStop",
"position":0,
"color":{
"_class":"color",
"alpha":1,
"blue":1,
"green":1,
"red":1
}
},
{
"_class":"gradientStop",
"position":1,
"color":{
"_class":"color",
"alpha":1,
"blue":0,
"green":0,
"red":0
}
}
]
},
"position":0,
"thickness":1
}
],
"colorControls":{
"_class":"colorControls",
"isEnabled":false,
"brightness":0,
"contrast":1,
"hue":0,
"saturation":1
},
"contextSettings":{
"_class":"graphicsContextSettings",
"blendMode":0,
"opacity":1
},
"fills":[
{
"_class":"fill",
"isEnabled":true,
"fillType":0,
"color":{
"_class":"color",
"alpha":1,
"blue":0.8173686594202898,
"green":0.6451730058655885,
"red":0.6758698162648997
},
"contextSettings":{
"_class":"graphicsContextSettings",
"blendMode":0,
"opacity":1
},
"gradient":{
"_class":"gradient",
"elipseLength":0,
"from":"{0.5, 0}",
"gradientType":0,
"to":"{0.5, 1}",
"stops":[
{
"_class":"gradientStop",
"position":0,
"color":{
"_class":"color",
"alpha":1,
"blue":1,
"green":1,
"red":1
}
},
{
"_class":"gradientStop",
"position":1,
"color":{
"_class":"color",
"alpha":1,
"blue":0,
"green":0,
"red":0
}
}
]
},
"noiseIndex":0,
"noiseIntensity":0,
"patternFillType":1,
"patternTileScale":1
}
],
"innerShadows":[],
"shadows":[]
},
"edited":false,
"isClosed":true,
"pointRadiusBehaviour":1,
"points":[
{
"_class":"curvePoint",
"cornerRadius":0,
"curveFrom":"{0.5, 0.75}",
"curveMode":1,
"curveTo":"{0.5, 0.75}",
"hasCurveFrom":false,
"hasCurveTo":false,
"point":"{0.5, 0.75}"
},
{
"_class":"curvePoint",
"cornerRadius":0,
"curveFrom":"{0.20610737385376349, 0.90450849718747373}",
"curveMode":1,
"curveTo":"{0.20610737385376349, 0.90450849718747373}",
"hasCurveFrom":false,
"hasCurveTo":false,
"point":"{0.20610737385376349, 0.90450849718747373}"
},
{
"_class":"curvePoint",
"cornerRadius":0,
"curveFrom":"{0.26223587092621159, 0.57725424859373686}",
"curveMode":1,
"curveTo":"{0.26223587092621159, 0.57725424859373686}",
"hasCurveFrom":false,
"hasCurveTo":false,
"point":"{0.26223587092621159, 0.57725424859373686}"
},
{
"_class":"curvePoint",
"cornerRadius":0,
"curveFrom":"{0.024471741852423179, 0.34549150281252639}",
"curveMode":1,
"curveTo":"{0.024471741852423179, 0.34549150281252639}",
"hasCurveFrom":false,
"hasCurveTo":false,
"point":"{0.024471741852423179, 0.34549150281252639}"
},
{
"_class":"curvePoint",
"cornerRadius":0,
"curveFrom":"{0.35305368692688166, 0.29774575140626314}",
"curveMode":1,
"curveTo":"{0.35305368692688166, 0.29774575140626314}",
"hasCurveFrom":false,
"hasCurveTo":false,
"point":"{0.35305368692688166, 0.29774575140626314}"
},
{
"_class":"curvePoint",
"cornerRadius":0,
"curveFrom":"{0.49999999999999989, 0}",
"curveMode":1,
"curveTo":"{0.49999999999999989, 0}",
"hasCurveFrom":false,
"hasCurveTo":false,
"point":"{0.49999999999999989, 0}"
},
{
"_class":"curvePoint",
"cornerRadius":0,
"curveFrom":"{0.64694631307311823, 0.29774575140626314}",
"curveMode":1,
"curveTo":"{0.64694631307311823, 0.29774575140626314}",
"hasCurveFrom":false,
"hasCurveTo":false,
"point":"{0.64694631307311823, 0.29774575140626314}"
},
{
"_class":"curvePoint",
"cornerRadius":0,
"curveFrom":"{0.97552825814757682, 0.34549150281252616}",
"curveMode":1,
"curveTo":"{0.97552825814757682, 0.34549150281252616}",
"hasCurveFrom":false,
"hasCurveTo":false,
"point":"{0.97552825814757682, 0.34549150281252616}"
},
{
"_class":"curvePoint",
"cornerRadius":0,
"curveFrom":"{0.73776412907378841, 0.57725424859373675}",
"curveMode":1,
"curveTo":"{0.73776412907378841, 0.57725424859373675}",
"hasCurveFrom":false,
"hasCurveTo":false,
"point":"{0.73776412907378841, 0.57725424859373675}"
},
{
"_class":"curvePoint",
"cornerRadius":0,
"curveFrom":"{0.79389262614623668, 0.90450849718747361}",
"curveMode":1,
"curveTo":"{0.79389262614623668, 0.90450849718747361}",
"hasCurveFrom":false,
"hasCurveTo":false,
"point":"{0.79389262614623668, 0.90450849718747361}"
}
],
"numberOfPoints":5,
"radius":0.5
},
{
"_class":"text",
"do_objectID":"339AE7A9-59D5-4F36-974A-0AB3E7C87B21",
"booleanOperation":-1,
"isFixedToViewport":false,
"isFlippedHorizontal":false,
"isFlippedVertical":false,
"isLocked":false,
"isVisible":true,
"layerListExpandedType":0,
"maintainScrollPosition":false,
"name":"Type something",
"nameIsFixed":false,
"resizingConstraint":47,
"resizingType":0,
"rotation":0,
"shouldBreakMaskChain":false,
"exportOptions":{
"_class":"exportOptions",
"includedLayerIds":[],
"layerOptions":0,
"shouldTrim":false,
"exportFormats":[]
},
"frame":{
"_class":"rect",
"constrainProportions":false,
"height":27,
"width":198,
"x":14,
"y":477
},
"clippingMaskMode":0,
"hasClippingMask":false,
"style":{
"_class":"style",
"do_objectID":"A99B8D6C-675F-476A-A378-7C96A66AE997",
"endMarkerType":0,
"miterLimit":10,
"startMarkerType":0,
"windingRule":1,
"blur":{
"_class":"blur",
"isEnabled":false,
"center":"{0.5, 0.5}",
"motionAngle":0,
"radius":10,
"saturation":1,
"type":0
},
"borderOptions":{
"_class":"borderOptions",
"isEnabled":true,
"dashPattern":[],
"lineCapStyle":0,
"lineJoinStyle":0
},
"borders":[],
"colorControls":{
"_class":"colorControls",
"isEnabled":false,
"brightness":0,
"contrast":1,
"hue":0,
"saturation":1
},
"contextSettings":{
"_class":"graphicsContextSettings",
"blendMode":0,
"opacity":1
},
"fills":[],
"innerShadows":[],
"shadows":[],
"textStyle":{
"_class":"textStyle",
"encodedAttributes":{
"MSAttributedStringFontAttribute":{
"_class":"fontDescriptor",
"attributes":{
"name":"ArialMT",
"size":24
}
},
"MSAttributedStringColorAttribute":{
"_class":"color",
"alpha":1,
"blue":0.2622846006377924,
"green":0.7447916666666666,
"red":0.1222633423844004
},
"textStyleVerticalAlignmentKey":0,
"paragraphStyle":{
"_class":"paragraphStyle",
"alignment":2,
"paragraphSpacing":20,
"allowsDefaultTighteningForTruncation":0,
"baseWritingDirection":0
},
"kerning":2
},
"verticalAlignment":0
}
},
"attributedString":{
"_class":"attributedString",
"string":"Type something",
"attributes":[
{
"_class":"stringAttribute",
"location":0,
"length":14,
"attributes":{
"MSAttributedStringFontAttribute":{
"_class":"fontDescriptor",
"attributes":{
"name":"ArialMT",
"size":24
}
},
"MSAttributedStringColorAttribute":{
"_class":"color",
"alpha":1,
"blue":0.2622846006377924,
"green":0.7447916666666666,
"red":0.1222633423844004
},
"textStyleVerticalAlignmentKey":0,
"paragraphStyle":{
"_class":"paragraphStyle",
"alignment":2,
"paragraphSpacing":20,
"allowsDefaultTighteningForTruncation":0,
"baseWritingDirection":0
},
"kerning":2
}
}
]
},
"automaticallyDrawOnUnderlyingPath":false,
"dontSynchroniseWithSymbol":false,
"glyphBounds":"{{0, 4}, {194, 24}}",
"lineSpacingBehaviour":2,
"textBehaviour":0
}
],
"hasBackgroundColor":false,
"includeBackgroundColorInExport":true,
"includeInCloudUpload":true,
"isFlowHome":false,
"presetDictionary":{},
"resizesContent":false,
"backgroundColor":{
"_class":"color",
"alpha":1,
"blue":1,
"green":1,
"red":1
},
"horizontalRulerData":{
"_class":"rulerData",
"base":0,
"guides":[]
},
"verticalRulerData":{
"_class":"rulerData",
"base":0,
"guides":[]
}
}
],
"includeInCloudUpload":true,
"horizontalRulerData":{
"_class":"rulerData",
"base":0,
"guides":[]
},
"verticalRulerData":{
"_class":"rulerData",
"base":0,
"guides":[]
}
}