{
"_class":"document",
"do_objectID":"066DF3BF-CD8B-4596-911D-35B1DE54FAC9",
"colorSpace":0,
"currentPageIndex":0,
"assets":{
"_class":"assetCollection",
"do_objectID":"AF0C0BB8-ED46-47FA-BF13-05EE972CF500",
"images":[],
"colorAssets":[],
"exportPresets":[],
"gradientAssets":[],
"imageCollection":{
"_class":"imageCollection",
"images":{}
},
"colors":[],
"gradients":[]
},
"foreignLayerStyles":[],
"foreignSymbols":[],
"foreignTextStyles":[],
"layerStyles":{
"_class":"sharedStyleContainer",
"objects":[]
},
"layerSymbols":{
"_class":"symbolContainer",
"objects":[]
},
"layerTextStyles":{
"_class":"sharedTextStyleContainer",
"objects":[]
},
"pages":[
{
"_class":"MSJSONFileReference",
"_ref_class":"MSImmutablePage",
"_ref":"pages/8387E4DF-2662-4447-AD77-E102BB20D953"
}
]
}